{
  "version": "1.0.0-*",
  "buildOptions": {
    "emitEntryPoint": true,
    "copyToOutput": [
      "appsettings.json",
      "run.ps1",
      "settings.job"
    ]
  },

  "publishOptions": [
    "appsettings.json",
    "run.ps1",
    "settings.job"
  ],
  "dependencies": {
    "Microsoft.NETCore.App": {
      "type": "platform",
      "version": "1.0.0"
    },
    "Microsoft.Extensions.Configuration.Abstractions": "1.0.0",
    "Microsoft.Extensions.Configuration.EnvironmentVariables": "1.0.0",
    "Microsoft.Extensions.Configuration.Json": "1.0.0",
    "Microsoft.Extensions.DependencyInjection": "1.0.0",
    "TickTock.Core": "1.0.0-4",
    "Microsoft.EntityFrameworkCore.SqlServer": "1.0.0"
  },

  "frameworks": {
    "netcoreapp1.0": {
      "imports": "dnxcore50"
    }
  }
}
